…
<img src="PA1_template_files/figure-markdown_strict/question1b-1.png" width="50%" /><img src="PA1_template_files/figure-markdown_strict/question1b-2.png" width="50%" />
Totals, Mean and Median information for each day.

    dailySteps

    ## # A tibble: 61 x 4
    ##    date       Totals    Mean Median
    ##    <date>      <dbl>   <dbl>  <dbl>
    ##  1 2012-10-01      0 NaN         NA
    ##  2 2012-10-02    126   0.438      0
    ##  3 2012-10-03  11352  39.4        0
    ##  4 2012-10-04  12116  42.1        0
    ##  5 2012-10-05  13294  46.2        0
    ##  6 2012-10-06  15420  53.5        0
    ##  7 2012-10-07  11015  38.2        0
    ##  8 2012-10-08      0 NaN         NA
    ##  9 2012-10-09  12811  44.5        0
    ## 10 2012-10-10   9900  34.4        0
    ## # … with 51 more rows
…
    repData <- activity
    missInd <- which(is.na(repData$steps))
    repData <- left_join(repData,sumTable[,1:2],by = "interval")
    repData[missInd,]$steps <- round(repData[missInd,]$Mean)
    repData <- select(repData, -Mean)
    repData

    ## # A tibble: 17,568 x 3
    ##    steps date       interval
    ##    <dbl> <date>        <dbl>
    ##  1     2 2012-10-01        0
    ##  2     0 2012-10-01        5
    ##  3     0 2012-10-01       10
    ##  4     0 2012-10-01       15
    ##  5     0 2012-10-01       20
    ##  6     2 2012-10-01       25
    ##  7     1 2012-10-01       30
    ##  8     1 2012-10-01       35
    ##  9     0 2012-10-01       40
    ## 10     1 2012-10-01       45
    ## # … with 17,558 more rows
…
<img src="PA1_template_files/figure-markdown_strict/question3d-1.png" width="50%" /><img src="PA1_template_files/figure-markdown_strict/question3d-2.png" width="50%" />
Totals, Mean and Median information for each day. The change in
distribution shows that we have eliminated the outlier yet no major
disruption has occurred.

    histA
    histB
    barA
    barB
    fdailySteps

    ## # A tibble: 61 x 4
    ##    date       Totals   Mean Median
    ##    <date>      <dbl>  <dbl>  <dbl>
    ##  1 2012-10-01  10762 37.4     34.5
    ##  2 2012-10-02    126  0.438    0  
    ##  3 2012-10-03  11352 39.4      0  
    ##  4 2012-10-04  12116 42.1      0  
    ##  5 2012-10-05  13294 46.2      0  
    ##  6 2012-10-06  15420 53.5      0  
    ##  7 2012-10-07  11015 38.2      0  
    ##  8 2012-10-08  10762 37.4     34.5
    ##  9 2012-10-09  12811 44.5      0  
    ## 10 2012-10-10   9900 34.4      0  
    ## # … with 51 more rows
…
